Jill,Doe
Joe,Doe
Justin,Doe
Jane,Doe
John,Doe
Pietro,Martinelli
Eddy,Merckx
Fausto,Coppi
Alberto,Contador
Bernard,Hinault
Jacques,Anquetil
Gilberto,Simoni
Ivan,Basso
Paolo,Savoldelli
Miguel,Indurain
Marco,Pantani
Franco,Chioccioli
Eddie,Hampsten
Tom,Dumolin
Vincenzo,Nibali
Gianni,Bugno
Ivan,Gotti
Tony,Rominger
Dennis,Menchov
